Chapter 2 Getting to know your data | CRIM20452 Modelling Criminological Data
…
The first example uses the package tibble to make an additional variable. This new variable, InjuredNew, has the same exact information as the variable injured.

In the second example, we changed our injured_r variable so that its values would have value labels.

In your group googledoc, type out the value for each value label of injured_r. If you are not sure how to figure this out, identify what the values were and run the attributes function on injured_r again. The order in which the value label appears from left to right will correspond to the order of values from lowest to highest.

Now we learn how to create a new variable that gives an ID number for each of our cases (rows):

# 3. Create a new column (aka variable) that has a row ID 
add_column(ncvs, newid = 1:nrow(ncvs))

## # A tibble: 1,431 x 49
##     YEAR  V2119   V2129 V3014   V3016   V3018   V3021   V3023 V3023A  V3024
##    <dbl> <dbl+> <dbl+l> <dbl> <dbl+l> <dbl+l> <dbl+l> <dbl+l> <dbl+> <dbl+>
##  1  2000 2 [No] 2 [(S)~    34 6 [Not~ 1 [Mal~ 1 [Yes] 1 [Whi~     NA 2 [No]
##  2  2000 2 [No] 2 [(S)~    22 6 [Not~ 2 [Fem~ 1 [Yes] 1 [Whi~     NA 2 [No]
##  3  2000 2 [No] 3 [Not~    21 5 [Nev~ 1 [Mal~ 1 [Yes] 1 [Whi~     NA 2 [No]
##  4  2000 2 [No] 3 [Not~    18 6 [Not~ 2 [Fem~ 2 [No]  1 [Whi~     NA 2 [No]
##  5  2000 2 [No] 2 [(S)~    16 6 [Not~ 2 [Fem~ 2 [No]  1 [Whi~     NA 2 [No]
##  6  2000 2 [No] 1 [Cit~    13 6 [Not~ 2 [Fem~ 2 [No]  1 [Whi~     NA 2 [No]
##  7  2000 2 [No] 2 [(S)~    16 6 [Not~ 1 [Mal~ 2 [No]  1 [Whi~     NA 2 [No]
##  8  2000 2 [No] 2 [(S)~    48 6 [Not~ 1 [Mal~ 1 [Yes] 1 [Whi~     NA 2 [No]
##  9  2000 2 [No] 2 [(S)~    12 5 [Nev~ 1 [Mal~ 1 [Yes] 1 [Whi~     NA 2 [No]
## 10  2000 2 [No] 2 [(S)~    42 6 [Not~ 1 [Mal~ 1 [Yes] 1 [Whi~     NA 2 [No]
## # ... with 1,421 more rows, and 39 more variables: V2026 <dbl+lbl>,
## #   V4049 <dbl+lbl>, V4234 <dbl+lbl>, V4235 <dbl+lbl>, V4236 <dbl+lbl>,
## #   V4237 <dbl+lbl>, V4237A <dbl+lbl>, V4238 <dbl+lbl>, V4239 <dbl+lbl>,
## #   V4240 <dbl+lbl>, V4241 <dbl+lbl>, V4242 <dbl+lbl>, V4243 <dbl+lbl>,
## #   V4244 <dbl+lbl>, V4245 <dbl+lbl>, V4246 <dbl+lbl>, V4246A <dbl+lbl>,
## #   V4246B <dbl+lbl>, V4246C <dbl+lbl>, V4246E <dbl+lbl>, V4246F <dbl+lbl>,
## #   V4246G <dbl+lbl>, V4247 <dbl+lbl>, V4528 <dbl+lbl>, injured <dbl+lbl>,
## #   privatelocation <dbl>, reportedtopolice <dbl+lbl>, weaponpresent <dbl>,
## #   medicalcarereceived <dbl>, `filter_$` <dbl+lbl>, relationship <dbl+lbl>,
…
